[
  {
    "name": "meadow-app",
    "image": "nulib/meadow:${docker_tag}",
    "cpu": 2000,
    "memoryReservation": 4000,
    "essential": true,
    "environment": [
      {
        "name": "SECRET_KEY_BASE",
        "value": "${secret_key_base}"
      },
      {
        "name": "DATABASE_URL",
        "value": "${database_url}"
      },
      {
        "name": "HONEYBADGER_API_KEY",
        "value": "${honeybadger_api_key}"
      },
      {
        "name": "INGEST_BUCKET",
        "value": "${ingest_bucket}"
      },
      {
        "name": "MEADOW_HOSTNAME",
        "value": "${host_name}"
      },
      { 
        "name": "RELEASE_COOKIE",
        "value": "${secret_key_base}"
      },
      { 
        "name": "RELEASE_DISTRIBUTION",
        "value": "name"
      },
      { 
        "name": "RELEASE_NODE",
        "value": "meadow@${host_name}"
      },
      {
        "name": "UPLOAD_BUCKET",
        "value": "${upload_bucket}"
      }
    ],
    "portMappings": [
      {
        "containerPort": 4000,
        "hostPort": 4000
      },
      {
        "containerPort": 4369,
        "hostPort": 4369
      },
      {
        "containerPort": 24601,
        "hostPort": 24601
      }
    ],
    "logConfiguration": {
      "logDriver": "awslogs",
      "options": {
        "awslogs-group": "${log_group}",
        "awslogs-region": "${region}",
        "awslogs-stream-prefix": "app"
      }
    }
  }
]